12
24166.6667 13250.0000
20833.3333 17100.0000
20900.0000 17066.6667
21600.0000 14150.0000
21600.0000 14966.6667
21600.0000 16500.0000
22183.3333 13133.3333
22583.3333 14300.0000
22683.3333 12716.6667
23616.6667 15866.6667
23700.0000 15933.3333
23883.3333 14533.3333